
88. Printing statistics.

=== core_top ===

   Number of wires:             144215
   Number of wire bits:         145052
   Number of public wires:       20002
   Number of public wire bits:   20839
   Number of memories:               0
   Number of memory bits:            0
   Number of processes:              0
   Number of cells:             144655
     sky130_fd_sc_hd__a2111o_2     146
     sky130_fd_sc_hd__a2111oi_2     31
     sky130_fd_sc_hd__a211o_2     2981
     sky130_fd_sc_hd__a211oi_2     252
     sky130_fd_sc_hd__a21bo_2      249
     sky130_fd_sc_hd__a21boi_2      63
     sky130_fd_sc_hd__a21o_2      3760
     sky130_fd_sc_hd__a21oi_2     2031
     sky130_fd_sc_hd__a221o_2     8859
     sky130_fd_sc_hd__a221oi_2     121
     sky130_fd_sc_hd__a22o_2      6452
     sky130_fd_sc_hd__a22oi_2      420
     sky130_fd_sc_hd__a2bb2o_2    1121
     sky130_fd_sc_hd__a2bb2oi_2      3
     sky130_fd_sc_hd__a311o_2      123
     sky130_fd_sc_hd__a311oi_2       7
     sky130_fd_sc_hd__a31o_2      1494
     sky130_fd_sc_hd__a31oi_2       75
     sky130_fd_sc_hd__a32o_2       315
     sky130_fd_sc_hd__a32oi_2       24
     sky130_fd_sc_hd__a41o_2        38
     sky130_fd_sc_hd__a41oi_2        1
     sky130_fd_sc_hd__and2_2      2665
     sky130_fd_sc_hd__and2b_2      572
     sky130_fd_sc_hd__and3_2      1441
     sky130_fd_sc_hd__and3b_2      313
     sky130_fd_sc_hd__and4_2       622
     sky130_fd_sc_hd__and4b_2      170
     sky130_fd_sc_hd__and4bb_2     155
     sky130_fd_sc_hd__buf_1      19148
     sky130_fd_sc_hd__buf_2         37
     sky130_fd_sc_hd__conb_1       108
     sky130_fd_sc_hd__dfrtp_2      637
     sky130_fd_sc_hd__dfstp_2        1
     sky130_fd_sc_hd__dfxtp_2    19209
     sky130_fd_sc_hd__dlxtn_1      150
     sky130_fd_sc_hd__inv_2       3639
     sky130_fd_sc_hd__mux2_1         3
     sky130_fd_sc_hd__mux2_2     25330
     sky130_fd_sc_hd__mux4_2      1667
     sky130_fd_sc_hd__nand2_2     3846
     sky130_fd_sc_hd__nand2b_2      19
     sky130_fd_sc_hd__nand3_2      267
     sky130_fd_sc_hd__nand3b_2      37
     sky130_fd_sc_hd__nand4_2       56
     sky130_fd_sc_hd__nand4b_2       5
     sky130_fd_sc_hd__nor2_2      5067
     sky130_fd_sc_hd__nor2b_2       13
     sky130_fd_sc_hd__nor3_2       419
     sky130_fd_sc_hd__nor3b_2       27
     sky130_fd_sc_hd__nor4_2        51
     sky130_fd_sc_hd__nor4b_2        5
     sky130_fd_sc_hd__o2111a_2     147
     sky130_fd_sc_hd__o2111ai_2     23
     sky130_fd_sc_hd__o211a_2     6931
     sky130_fd_sc_hd__o211ai_2     192
     sky130_fd_sc_hd__o21a_2      2260
     sky130_fd_sc_hd__o21ai_2     1566
     sky130_fd_sc_hd__o21ba_2      297
     sky130_fd_sc_hd__o21bai_2     104
     sky130_fd_sc_hd__o221a_2     2486
     sky130_fd_sc_hd__o221ai_2     124
     sky130_fd_sc_hd__o22a_2      1840
     sky130_fd_sc_hd__o22ai_2      203
     sky130_fd_sc_hd__o2bb2a_2     827
     sky130_fd_sc_hd__o2bb2ai_2      3
     sky130_fd_sc_hd__o311a_2      276
     sky130_fd_sc_hd__o31a_2       339
     sky130_fd_sc_hd__o31ai_2       30
     sky130_fd_sc_hd__o32a_2       190
     sky130_fd_sc_hd__o32ai_2        4
     sky130_fd_sc_hd__o41a_2        21
     sky130_fd_sc_hd__or2_2       6402
     sky130_fd_sc_hd__or2b_2       383
     sky130_fd_sc_hd__or3_2        992
     sky130_fd_sc_hd__or3b_2       328
     sky130_fd_sc_hd__or4_2        945
     sky130_fd_sc_hd__or4b_2       282
     sky130_fd_sc_hd__or4bb_2       80
     sky130_fd_sc_hd__xnor2_2     2178
     sky130_fd_sc_hd__xor2_2       957

   Chip area for module '\core_top': 1541866.272002

