
===========================================================================
report_checks -unconstrained
============================================================================
Startpoint: reset_n (input port clocked by clk)
Endpoint: _33315_ (recovery check against rising-edge clock clk)
Path Group: **async_default**
Path Type: max

Fanout     Cap    Slew   Delay    Time   Description
-----------------------------------------------------------------------------
                  0.15    0.00    0.00   clock clk (rise edge)
                          0.00    0.00   clock network delay (ideal)
                          8.00    8.00 ^ input external delay
                 66.88   47.98   55.98 ^ reset_n (in)
  4021   14.99                           reset_n (net)
                 66.88    0.00   55.98 ^ _33315_/RESET_B (sky130_fd_sc_hd__dfrtp_2)
                                 55.98   data arrival time

                  0.15   40.00   40.00   clock clk (rise edge)
                          0.00   40.00   clock network delay (ideal)
                         -0.25   39.75   clock uncertainty
                          0.00   39.75   clock reconvergence pessimism
                                 39.75 ^ _33315_/CLK (sky130_fd_sc_hd__dfrtp_2)
                        -22.51   17.24   library recovery time
                                 17.24   data required time
-----------------------------------------------------------------------------
                                 17.24   data required time
                                -55.98   data arrival time
-----------------------------------------------------------------------------
                                -38.74   slack (VIOLATED)


Startpoint: address[0] (input port clocked by clk)
Endpoint: read_data[11] (output port clocked by clk)
Path Group: clk
Path Type: max

Fanout     Cap    Slew   Delay    Time   Description
-----------------------------------------------------------------------------
                  0.15    0.00    0.00   clock clk (rise edge)
                          0.00    0.00   clock network delay (ideal)
                          8.00    8.00 v input external delay
                  0.05    0.03    8.03 v address[0] (in)
    10    0.02                           address[0] (net)
                  0.05    0.00    8.03 v _16619_/A (sky130_fd_sc_hd__or4_2)
                  0.15    0.78    8.81 v _16619_/X (sky130_fd_sc_hd__or4_2)
     4    0.02                           _15656_ (net)
                  0.15    0.01    8.82 v _16621_/A (sky130_fd_sc_hd__nor2_2)
                  0.11    0.17    8.99 ^ _16621_/Y (sky130_fd_sc_hd__nor2_2)
     3    0.01                           _15658_ (net)
                  0.11    0.00    8.99 ^ _17009_/A (sky130_fd_sc_hd__buf_1)
                  0.60    0.51    9.50 ^ _17009_/X (sky130_fd_sc_hd__buf_1)
    20    0.05                           _15981_ (net)
                  0.60    0.00    9.50 ^ _17010_/A (sky130_fd_sc_hd__buf_1)
                  0.60    0.56   10.06 ^ _17010_/X (sky130_fd_sc_hd__buf_1)
    20    0.05                           _15982_ (net)
                  0.60    0.00   10.06 ^ _17011_/A (sky130_fd_sc_hd__buf_1)
                  0.61    0.57   10.63 ^ _17011_/X (sky130_fd_sc_hd__buf_1)
    20    0.05                           _15983_ (net)
                  0.61    0.00   10.63 ^ _17229_/A2 (sky130_fd_sc_hd__a211o_2)
                  0.04    0.24   10.87 ^ _17229_/X (sky130_fd_sc_hd__a211o_2)
     1    0.00                           _16190_ (net)
                  0.04    0.01   10.87 ^ _17234_/B1 (sky130_fd_sc_hd__a221o_2)
                  0.05    0.12   11.00 ^ _17234_/X (sky130_fd_sc_hd__a221o_2)
     1    0.00                           _16195_ (net)
                  0.05    0.00   11.00 ^ _17235_/B (sky130_fd_sc_hd__and2_2)
                  0.05    0.13   11.13 ^ _17235_/X (sky130_fd_sc_hd__and2_2)
     1    0.00                           _16196_ (net)
                  0.05    0.00   11.14 ^ _17236_/A (sky130_fd_sc_hd__buf_1)
                  0.43    0.33   11.47 ^ _17236_/X (sky130_fd_sc_hd__buf_1)
     1    0.03                           read_data[11] (net)
                  0.43    0.00   11.47 ^ read_data[11] (out)
                                 11.47   data arrival time

                  0.15   40.00   40.00   clock clk (rise edge)
                          0.00   40.00   clock network delay (ideal)
                         -0.25   39.75   clock uncertainty
                          0.00   39.75   clock reconvergence pessimism
                         -8.00   31.75   output external delay
                                 31.75   data required time
-----------------------------------------------------------------------------
                                 31.75   data required time
                                -11.47   data arrival time
-----------------------------------------------------------------------------
                                 20.28   slack (MET)



===========================================================================
report_checks --slack_max -0.01
============================================================================
Startpoint: reset_n (input port clocked by clk)
Endpoint: _33315_ (recovery check against rising-edge clock clk)
Path Group: **async_default**
Path Type: max

Fanout     Cap    Slew   Delay    Time   Description
-----------------------------------------------------------------------------
                  0.15    0.00    0.00   clock clk (rise edge)
                          0.00    0.00   clock network delay (ideal)
                          8.00    8.00 ^ input external delay
                 66.88   47.98   55.98 ^ reset_n (in)
  4021   14.99                           reset_n (net)
                 66.88    0.00   55.98 ^ _33315_/RESET_B (sky130_fd_sc_hd__dfrtp_2)
                                 55.98   data arrival time

                  0.15   40.00   40.00   clock clk (rise edge)
                          0.00   40.00   clock network delay (ideal)
                         -0.25   39.75   clock uncertainty
                          0.00   39.75   clock reconvergence pessimism
                                 39.75 ^ _33315_/CLK (sky130_fd_sc_hd__dfrtp_2)
                        -22.51   17.24   library recovery time
                                 17.24   data required time
-----------------------------------------------------------------------------
                                 17.24   data required time
                                -55.98   data arrival time
-----------------------------------------------------------------------------
                                -38.74   slack (VIOLATED)


