
26. Printing statistics.

=== sha3_core ===

   Number of wires:              20982
   Number of wire bits:          22848
   Number of public wires:        1368
   Number of public wire bits:    3234
   Number of memories:               0
   Number of memory bits:            0
   Number of processes:              0
   Number of cells:              21229
     sky130_fd_sc_hd__a2111o_2       4
     sky130_fd_sc_hd__a2111oi_2      1
     sky130_fd_sc_hd__a211o_2      163
     sky130_fd_sc_hd__a211oi_2       9
     sky130_fd_sc_hd__a21bo_2       73
     sky130_fd_sc_hd__a21o_2       622
     sky130_fd_sc_hd__a21oi_2      681
     sky130_fd_sc_hd__a221o_2       10
     sky130_fd_sc_hd__a22o_2      1094
     sky130_fd_sc_hd__a22oi_2        6
     sky130_fd_sc_hd__a2bb2o_2     504
     sky130_fd_sc_hd__a311o_2        4
     sky130_fd_sc_hd__a311oi_2       1
     sky130_fd_sc_hd__a31o_2       650
     sky130_fd_sc_hd__a31oi_2        6
     sky130_fd_sc_hd__a32o_2      1475
     sky130_fd_sc_hd__a41o_2        14
     sky130_fd_sc_hd__and2_2       641
     sky130_fd_sc_hd__and2b_2      176
     sky130_fd_sc_hd__and3_2        86
     sky130_fd_sc_hd__and3b_2        6
     sky130_fd_sc_hd__and4_2       401
     sky130_fd_sc_hd__and4b_2        2
     sky130_fd_sc_hd__buf_1       1100
     sky130_fd_sc_hd__buf_2          6
     sky130_fd_sc_hd__dfrtp_2     1610
     sky130_fd_sc_hd__dfstp_2        1
     sky130_fd_sc_hd__inv_2       1676
     sky130_fd_sc_hd__mux2_2        21
     sky130_fd_sc_hd__nand2_2      857
     sky130_fd_sc_hd__nand2b_2      90
     sky130_fd_sc_hd__nand3_2        8
     sky130_fd_sc_hd__nand3b_2       6
     sky130_fd_sc_hd__nand4_2      447
     sky130_fd_sc_hd__nand4b_2       1
     sky130_fd_sc_hd__nor2_2       287
     sky130_fd_sc_hd__nor2b_2      202
     sky130_fd_sc_hd__nor3_2         3
     sky130_fd_sc_hd__nor3b_2        2
     sky130_fd_sc_hd__nor4_2         1
     sky130_fd_sc_hd__nor4b_2        2
     sky130_fd_sc_hd__o2111a_2      26
     sky130_fd_sc_hd__o211a_2      495
     sky130_fd_sc_hd__o211ai_2      25
     sky130_fd_sc_hd__o21a_2       274
     sky130_fd_sc_hd__o21ai_2      607
     sky130_fd_sc_hd__o21ba_2       14
     sky130_fd_sc_hd__o21bai_2     109
     sky130_fd_sc_hd__o221a_2       18
     sky130_fd_sc_hd__o22a_2        34
     sky130_fd_sc_hd__o22ai_2        3
     sky130_fd_sc_hd__o2bb2a_2      14
     sky130_fd_sc_hd__o2bb2ai_2      1
     sky130_fd_sc_hd__o311a_2       79
     sky130_fd_sc_hd__o31a_2        86
     sky130_fd_sc_hd__o31ai_2        5
     sky130_fd_sc_hd__o32a_2         7
     sky130_fd_sc_hd__o32ai_2        1
     sky130_fd_sc_hd__o41a_2         6
     sky130_fd_sc_hd__o41ai_2        1
     sky130_fd_sc_hd__or2_2        495
     sky130_fd_sc_hd__or2b_2        40
     sky130_fd_sc_hd__or3_2       1106
     sky130_fd_sc_hd__or3b_2       198
     sky130_fd_sc_hd__or4_2         46
     sky130_fd_sc_hd__or4b_2       107
     sky130_fd_sc_hd__xnor2_2     3239
     sky130_fd_sc_hd__xor2_2      1244

   Chip area for module '\sha3_core': 238346.092800

