
===========================================================================
 report_design_area
============================================================================
Design area 238346 u^2 100% utilization.
