
===========================================================================
report_checks -path_delay max (Setup)
============================================================================
Startpoint: _40834_ (rising edge-triggered flip-flop)
Endpoint: md_valid_o (output port clocked by clk)
Path Group: clk
Path Type: max

Fanout     Cap    Slew   Delay    Time   Description
-----------------------------------------------------------------------------
                 14.31    0.00    0.00 ^ _40834_/CLK (sky130_fd_sc_hd__dfstp_2)
                  0.08    2.26    2.26 ^ _40834_/Q (sky130_fd_sc_hd__dfstp_2)
     4    0.02                           md_last (net)
                  0.08    0.00    2.26 ^ _37526_/A1 (sky130_fd_sc_hd__a21o_2)
                  0.20    0.23    2.49 ^ _37526_/X (sky130_fd_sc_hd__a21o_2)
     1    0.03                           md_valid_o (net)
                  0.20    0.00    2.49 ^ md_valid_o (out)
                                  2.49   data arrival time

                  0.00   40.00   40.00   clock clk (rise edge)
                          0.00   40.00   clock network delay (ideal)
                         -0.25   39.75   clock uncertainty
                          0.00   39.75   clock reconvergence pessimism
                         -8.00   31.75   output external delay
                                 31.75   data required time
-----------------------------------------------------------------------------
                                 31.75   data required time
                                 -2.49   data arrival time
-----------------------------------------------------------------------------
                                 29.26   slack (MET)


Startpoint: _40832_ (rising edge-triggered flip-flop)
Endpoint: ready_o (output port clocked by clk)
Path Group: clk
Path Type: max

Fanout     Cap    Slew   Delay    Time   Description
-----------------------------------------------------------------------------
                 14.31    0.00    0.00 ^ _40832_/CLK (sky130_fd_sc_hd__dfrtp_2)
                  0.12    2.12    2.12 ^ _40832_/Q (sky130_fd_sc_hd__dfrtp_2)
     5    0.02                           ena (net)
                  0.12    0.01    2.13 ^ _19615_/A (sky130_fd_sc_hd__inv_2)
                  0.10    0.09    2.23 v _19615_/Y (sky130_fd_sc_hd__inv_2)
     3    0.04                           ready_o (net)
                  0.10    0.00    2.23 v ready_o (out)
                                  2.23   data arrival time

                  0.00   40.00   40.00   clock clk (rise edge)
                          0.00   40.00   clock network delay (ideal)
                         -0.25   39.75   clock uncertainty
                          0.00   39.75   clock reconvergence pessimism
                         -8.00   31.75   output external delay
                                 31.75   data required time
-----------------------------------------------------------------------------
                                 31.75   data required time
                                 -2.23   data arrival time
-----------------------------------------------------------------------------
                                 29.52   slack (MET)


Startpoint: _39331_ (rising edge-triggered flip-flop)
Endpoint: md_data_o[100] (output port clocked by clk)
Path Group: clk
Path Type: max

Fanout     Cap    Slew   Delay    Time   Description
-----------------------------------------------------------------------------
                 14.31    0.00    0.00 ^ _39331_/CLK (sky130_fd_sc_hd__dfrtp_2)
                  0.22    2.19    2.19 ^ _39331_/Q (sky130_fd_sc_hd__dfrtp_2)
     4    0.04                           md_data_o[100] (net)
                  0.22    0.00    2.19 ^ md_data_o[100] (out)
                                  2.19   data arrival time

                  0.00   40.00   40.00   clock clk (rise edge)
                          0.00   40.00   clock network delay (ideal)
                         -0.25   39.75   clock uncertainty
                          0.00   39.75   clock reconvergence pessimism
                         -8.00   31.75   output external delay
                                 31.75   data required time
-----------------------------------------------------------------------------
                                 31.75   data required time
                                 -2.19   data arrival time
-----------------------------------------------------------------------------
                                 29.56   slack (MET)


Startpoint: _39330_ (rising edge-triggered flip-flop)
Endpoint: md_data_o[101] (output port clocked by clk)
Path Group: clk
Path Type: max

Fanout     Cap    Slew   Delay    Time   Description
-----------------------------------------------------------------------------
                 14.31    0.00    0.00 ^ _39330_/CLK (sky130_fd_sc_hd__dfrtp_2)
                  0.22    2.19    2.19 ^ _39330_/Q (sky130_fd_sc_hd__dfrtp_2)
     4    0.04                           md_data_o[101] (net)
                  0.22    0.00    2.19 ^ md_data_o[101] (out)
                                  2.19   data arrival time

                  0.00   40.00   40.00   clock clk (rise edge)
                          0.00   40.00   clock network delay (ideal)
                         -0.25   39.75   clock uncertainty
                          0.00   39.75   clock reconvergence pessimism
                         -8.00   31.75   output external delay
                                 31.75   data required time
-----------------------------------------------------------------------------
                                 31.75   data required time
                                 -2.19   data arrival time
-----------------------------------------------------------------------------
                                 29.56   slack (MET)


Startpoint: _39329_ (rising edge-triggered flip-flop)
Endpoint: md_data_o[102] (output port clocked by clk)
Path Group: clk
Path Type: max

Fanout     Cap    Slew   Delay    Time   Description
-----------------------------------------------------------------------------
                 14.31    0.00    0.00 ^ _39329_/CLK (sky130_fd_sc_hd__dfrtp_2)
                  0.22    2.19    2.19 ^ _39329_/Q (sky130_fd_sc_hd__dfrtp_2)
     4    0.04                           md_data_o[102] (net)
                  0.22    0.00    2.19 ^ md_data_o[102] (out)
                                  2.19   data arrival time

                  0.00   40.00   40.00   clock clk (rise edge)
                          0.00   40.00   clock network delay (ideal)
                         -0.25   39.75   clock uncertainty
                          0.00   39.75   clock reconvergence pessimism
                         -8.00   31.75   output external delay
                                 31.75   data required time
-----------------------------------------------------------------------------
                                 31.75   data required time
                                 -2.19   data arrival time
-----------------------------------------------------------------------------
                                 29.56   slack (MET)


