
===========================================================================
report_checks -path_delay max (Setup)
============================================================================
Startpoint: reset_n (input port clocked by clk)
Endpoint: _33435_ (recovery check against rising-edge clock clk)
Path Group: **async_default**
Path Type: max

Fanout     Cap    Slew   Delay    Time   Description
-----------------------------------------------------------------------------
                  0.15    0.00    0.00   clock clk (rise edge)
                          0.00    0.00   clock network delay (ideal)
                          8.00    8.00 ^ input external delay
                  0.04    0.03    8.03 ^ reset_n (in)
     1    0.01                           reset_n (net)
                  0.04    0.00    8.03 ^ input16/A (sky130_fd_sc_hd__buf_8)
                  0.15    0.17    8.20 ^ input16/X (sky130_fd_sc_hd__buf_8)
    11    0.09                           net16 (net)
                  0.16    0.02    8.22 ^ repeater229/A (sky130_fd_sc_hd__buf_8)
                  0.16    0.22    8.44 ^ repeater229/X (sky130_fd_sc_hd__buf_8)
    19    0.09                           net229 (net)
                  0.16    0.00    8.45 ^ repeater228/A (sky130_fd_sc_hd__buf_12)
                  0.12    0.20    8.64 ^ repeater228/X (sky130_fd_sc_hd__buf_12)
    19    0.10                           net228 (net)
                  0.12    0.01    8.65 ^ repeater203/A (sky130_fd_sc_hd__buf_8)
                  0.11    0.18    8.83 ^ repeater203/X (sky130_fd_sc_hd__buf_8)
    13    0.06                           net203 (net)
                  0.11    0.00    8.83 ^ repeater202/A (sky130_fd_sc_hd__buf_8)
                  0.14    0.20    9.03 ^ repeater202/X (sky130_fd_sc_hd__buf_8)
    16    0.08                           net202 (net)
                  0.14    0.00    9.03 ^ repeater201/A (sky130_fd_sc_hd__buf_12)
                  0.10    0.18    9.21 ^ repeater201/X (sky130_fd_sc_hd__buf_12)
    16    0.08                           net201 (net)
                  0.10    0.00    9.21 ^ repeater200/A (sky130_fd_sc_hd__buf_8)
                  0.16    0.21    9.42 ^ repeater200/X (sky130_fd_sc_hd__buf_8)
    19    0.10                           net200 (net)
                  0.16    0.01    9.43 ^ repeater198/A (sky130_fd_sc_hd__buf_8)
                  0.16    0.22    9.65 ^ repeater198/X (sky130_fd_sc_hd__buf_8)
    19    0.10                           net198 (net)
                  0.16    0.01    9.65 ^ repeater197/A (sky130_fd_sc_hd__buf_8)
                  0.14    0.21    9.87 ^ repeater197/X (sky130_fd_sc_hd__buf_8)
    17    0.08                           net197 (net)
                  0.14    0.00    9.87 ^ repeater151/A (sky130_fd_sc_hd__buf_8)
                  0.15    0.22   10.09 ^ repeater151/X (sky130_fd_sc_hd__buf_8)
    19    0.09                           net151 (net)
                  0.15    0.00   10.09 ^ repeater150/A (sky130_fd_sc_hd__buf_8)
                  0.15    0.22   10.31 ^ repeater150/X (sky130_fd_sc_hd__buf_8)
    19    0.09                           net150 (net)
                  0.15    0.00   10.31 ^ repeater149/A (sky130_fd_sc_hd__buf_8)
                  0.16    0.22   10.53 ^ repeater149/X (sky130_fd_sc_hd__buf_8)
    19    0.09                           net149 (net)
                  0.16    0.01   10.54 ^ repeater148/A (sky130_fd_sc_hd__buf_12)
                  0.10    0.18   10.72 ^ repeater148/X (sky130_fd_sc_hd__buf_12)
    16    0.08                           net148 (net)
                  0.10    0.00   10.72 ^ repeater147/A (sky130_fd_sc_hd__buf_8)
                  0.10    0.17   10.89 ^ repeater147/X (sky130_fd_sc_hd__buf_8)
    12    0.06                           net147 (net)
                  0.10    0.00   10.89 ^ repeater146/A (sky130_fd_sc_hd__buf_8)
                  0.15    0.20   11.09 ^ repeater146/X (sky130_fd_sc_hd__buf_8)
    19    0.09                           net146 (net)
                  0.15    0.00   11.10 ^ repeater145/A (sky130_fd_sc_hd__buf_8)
                  0.16    0.22   11.32 ^ repeater145/X (sky130_fd_sc_hd__buf_8)
    19    0.09                           net145 (net)
                  0.16    0.00   11.32 ^ repeater144/A (sky130_fd_sc_hd__buf_8)
                  0.15    0.22   11.54 ^ repeater144/X (sky130_fd_sc_hd__buf_8)
    19    0.09                           net144 (net)
                  0.15    0.00   11.54 ^ repeater143/A (sky130_fd_sc_hd__buf_8)
                  0.15    0.22   11.76 ^ repeater143/X (sky130_fd_sc_hd__buf_8)
    19    0.09                           net143 (net)
                  0.15    0.00   11.76 ^ repeater142/A (sky130_fd_sc_hd__buf_8)
                  0.15    0.22   11.98 ^ repeater142/X (sky130_fd_sc_hd__buf_8)
    19    0.09                           net142 (net)
                  0.15    0.00   11.99 ^ repeater141/A (sky130_fd_sc_hd__buf_8)
                  0.15    0.22   12.20 ^ repeater141/X (sky130_fd_sc_hd__buf_8)
    19    0.09                           net141 (net)
                  0.15    0.00   12.20 ^ repeater140/A (sky130_fd_sc_hd__buf_6)
                  0.13    0.20   12.41 ^ repeater140/X (sky130_fd_sc_hd__buf_6)
    12    0.06                           net140 (net)
                  0.13    0.00   12.41 ^ repeater139/A (sky130_fd_sc_hd__buf_8)
                  0.16    0.21   12.62 ^ repeater139/X (sky130_fd_sc_hd__buf_8)
    19    0.10                           net139 (net)
                  0.16    0.00   12.63 ^ repeater136/A (sky130_fd_sc_hd__buf_8)
                  0.15    0.22   12.85 ^ repeater136/X (sky130_fd_sc_hd__buf_8)
    19    0.09                           net136 (net)
                  0.15    0.00   12.85 ^ repeater135/A (sky130_fd_sc_hd__buf_8)
                  0.15    0.21   13.06 ^ repeater135/X (sky130_fd_sc_hd__buf_8)
    19    0.09                           net135 (net)
                  0.15    0.00   13.07 ^ _33435_/SET_B (sky130_fd_sc_hd__dfstp_1)
                                 13.07   data arrival time

                  0.15   40.00   40.00   clock clk (rise edge)
                          0.00   40.00   clock network delay (ideal)
                         -0.25   39.75   clock uncertainty
                          0.00   39.75   clock reconvergence pessimism
                                 39.75 ^ _33435_/CLK (sky130_fd_sc_hd__dfstp_1)
                          0.16   39.91   library recovery time
                                 39.91   data required time
-----------------------------------------------------------------------------
                                 39.91   data required time
                                -13.07   data arrival time
-----------------------------------------------------------------------------
                                 26.84   slack (MET)


Startpoint: reset_n (input port clocked by clk)
Endpoint: _33448_ (recovery check against rising-edge clock clk)
Path Group: **async_default**
Path Type: max

Fanout     Cap    Slew   Delay    Time   Description
-----------------------------------------------------------------------------
                  0.15    0.00    0.00   clock clk (rise edge)
                          0.00    0.00   clock network delay (ideal)
                          8.00    8.00 ^ input external delay
                  0.04    0.03    8.03 ^ reset_n (in)
     1    0.01                           reset_n (net)
                  0.04    0.00    8.03 ^ input16/A (sky130_fd_sc_hd__buf_8)
                  0.15    0.17    8.20 ^ input16/X (sky130_fd_sc_hd__buf_8)
    11    0.09                           net16 (net)
                  0.16    0.02    8.22 ^ repeater229/A (sky130_fd_sc_hd__buf_8)
                  0.16    0.22    8.44 ^ repeater229/X (sky130_fd_sc_hd__buf_8)
    19    0.09                           net229 (net)
                  0.16    0.00    8.45 ^ repeater228/A (sky130_fd_sc_hd__buf_12)
                  0.12    0.20    8.64 ^ repeater228/X (sky130_fd_sc_hd__buf_12)
    19    0.10                           net228 (net)
                  0.12    0.01    8.65 ^ repeater203/A (sky130_fd_sc_hd__buf_8)
                  0.11    0.18    8.83 ^ repeater203/X (sky130_fd_sc_hd__buf_8)
    13    0.06                           net203 (net)
                  0.11    0.00    8.83 ^ repeater202/A (sky130_fd_sc_hd__buf_8)
                  0.14    0.20    9.03 ^ repeater202/X (sky130_fd_sc_hd__buf_8)
    16    0.08                           net202 (net)
                  0.14    0.00    9.03 ^ repeater201/A (sky130_fd_sc_hd__buf_12)
                  0.10    0.18    9.21 ^ repeater201/X (sky130_fd_sc_hd__buf_12)
    16    0.08                           net201 (net)
                  0.10    0.00    9.21 ^ repeater200/A (sky130_fd_sc_hd__buf_8)
                  0.16    0.21    9.42 ^ repeater200/X (sky130_fd_sc_hd__buf_8)
    19    0.10                           net200 (net)
                  0.16    0.01    9.43 ^ repeater198/A (sky130_fd_sc_hd__buf_8)
                  0.16    0.22    9.65 ^ repeater198/X (sky130_fd_sc_hd__buf_8)
    19    0.10                           net198 (net)
                  0.16    0.01    9.65 ^ repeater197/A (sky130_fd_sc_hd__buf_8)
                  0.14    0.21    9.87 ^ repeater197/X (sky130_fd_sc_hd__buf_8)
    17    0.08                           net197 (net)
                  0.14    0.00    9.87 ^ repeater151/A (sky130_fd_sc_hd__buf_8)
                  0.15    0.22   10.09 ^ repeater151/X (sky130_fd_sc_hd__buf_8)
    19    0.09                           net151 (net)
                  0.15    0.00   10.09 ^ repeater150/A (sky130_fd_sc_hd__buf_8)
                  0.15    0.22   10.31 ^ repeater150/X (sky130_fd_sc_hd__buf_8)
    19    0.09                           net150 (net)
                  0.15    0.00   10.31 ^ repeater149/A (sky130_fd_sc_hd__buf_8)
                  0.16    0.22   10.53 ^ repeater149/X (sky130_fd_sc_hd__buf_8)
    19    0.09                           net149 (net)
                  0.16    0.01   10.54 ^ repeater148/A (sky130_fd_sc_hd__buf_12)
                  0.10    0.18   10.72 ^ repeater148/X (sky130_fd_sc_hd__buf_12)
    16    0.08                           net148 (net)
                  0.10    0.00   10.72 ^ repeater147/A (sky130_fd_sc_hd__buf_8)
                  0.10    0.17   10.89 ^ repeater147/X (sky130_fd_sc_hd__buf_8)
    12    0.06                           net147 (net)
                  0.10    0.00   10.89 ^ repeater146/A (sky130_fd_sc_hd__buf_8)
                  0.15    0.20   11.09 ^ repeater146/X (sky130_fd_sc_hd__buf_8)
    19    0.09                           net146 (net)
                  0.15    0.00   11.10 ^ repeater145/A (sky130_fd_sc_hd__buf_8)
                  0.16    0.22   11.32 ^ repeater145/X (sky130_fd_sc_hd__buf_8)
    19    0.09                           net145 (net)
                  0.16    0.00   11.32 ^ repeater144/A (sky130_fd_sc_hd__buf_8)
                  0.15    0.22   11.54 ^ repeater144/X (sky130_fd_sc_hd__buf_8)
    19    0.09                           net144 (net)
                  0.15    0.00   11.54 ^ repeater143/A (sky130_fd_sc_hd__buf_8)
                  0.15    0.22   11.76 ^ repeater143/X (sky130_fd_sc_hd__buf_8)
    19    0.09                           net143 (net)
                  0.15    0.00   11.76 ^ repeater142/A (sky130_fd_sc_hd__buf_8)
                  0.15    0.22   11.98 ^ repeater142/X (sky130_fd_sc_hd__buf_8)
    19    0.09                           net142 (net)
                  0.15    0.00   11.99 ^ repeater141/A (sky130_fd_sc_hd__buf_8)
                  0.15    0.22   12.20 ^ repeater141/X (sky130_fd_sc_hd__buf_8)
    19    0.09                           net141 (net)
                  0.15    0.00   12.20 ^ repeater140/A (sky130_fd_sc_hd__buf_6)
                  0.13    0.20   12.41 ^ repeater140/X (sky130_fd_sc_hd__buf_6)
    12    0.06                           net140 (net)
                  0.13    0.00   12.41 ^ repeater139/A (sky130_fd_sc_hd__buf_8)
                  0.16    0.21   12.62 ^ repeater139/X (sky130_fd_sc_hd__buf_8)
    19    0.10                           net139 (net)
                  0.16    0.00   12.63 ^ repeater136/A (sky130_fd_sc_hd__buf_8)
                  0.15    0.22   12.85 ^ repeater136/X (sky130_fd_sc_hd__buf_8)
    19    0.09                           net136 (net)
                  0.15    0.00   12.85 ^ repeater135/A (sky130_fd_sc_hd__buf_8)
                  0.15    0.21   13.06 ^ repeater135/X (sky130_fd_sc_hd__buf_8)
    19    0.09                           net135 (net)
                  0.15    0.00   13.06 ^ _33448_/SET_B (sky130_fd_sc_hd__dfstp_1)
                                 13.06   data arrival time

                  0.15   40.00   40.00   clock clk (rise edge)
                          0.00   40.00   clock network delay (ideal)
                         -0.25   39.75   clock uncertainty
                          0.00   39.75   clock reconvergence pessimism
                                 39.75 ^ _33448_/CLK (sky130_fd_sc_hd__dfstp_1)
                          0.16   39.91   library recovery time
                                 39.91   data required time
-----------------------------------------------------------------------------
                                 39.91   data required time
                                -13.06   data arrival time
-----------------------------------------------------------------------------
                                 26.84   slack (MET)


Startpoint: reset_n (input port clocked by clk)
Endpoint: _36812_ (recovery check against rising-edge clock clk)
Path Group: **async_default**
Path Type: max

Fanout     Cap    Slew   Delay    Time   Description
-----------------------------------------------------------------------------
                  0.15    0.00    0.00   clock clk (rise edge)
                          0.00    0.00   clock network delay (ideal)
                          8.00    8.00 ^ input external delay
                  0.04    0.03    8.03 ^ reset_n (in)
     1    0.01                           reset_n (net)
                  0.04    0.00    8.03 ^ input16/A (sky130_fd_sc_hd__buf_8)
                  0.15    0.17    8.20 ^ input16/X (sky130_fd_sc_hd__buf_8)
    11    0.09                           net16 (net)
                  0.16    0.02    8.22 ^ repeater229/A (sky130_fd_sc_hd__buf_8)
                  0.16    0.22    8.44 ^ repeater229/X (sky130_fd_sc_hd__buf_8)
    19    0.09                           net229 (net)
                  0.16    0.00    8.45 ^ repeater228/A (sky130_fd_sc_hd__buf_12)
                  0.12    0.20    8.64 ^ repeater228/X (sky130_fd_sc_hd__buf_12)
    19    0.10                           net228 (net)
                  0.12    0.01    8.65 ^ repeater203/A (sky130_fd_sc_hd__buf_8)
                  0.11    0.18    8.83 ^ repeater203/X (sky130_fd_sc_hd__buf_8)
    13    0.06                           net203 (net)
                  0.11    0.00    8.83 ^ repeater202/A (sky130_fd_sc_hd__buf_8)
                  0.14    0.20    9.03 ^ repeater202/X (sky130_fd_sc_hd__buf_8)
    16    0.08                           net202 (net)
                  0.14    0.00    9.03 ^ repeater201/A (sky130_fd_sc_hd__buf_12)
                  0.10    0.18    9.21 ^ repeater201/X (sky130_fd_sc_hd__buf_12)
    16    0.08                           net201 (net)
                  0.10    0.00    9.21 ^ repeater200/A (sky130_fd_sc_hd__buf_8)
                  0.16    0.21    9.42 ^ repeater200/X (sky130_fd_sc_hd__buf_8)
    19    0.10                           net200 (net)
                  0.16    0.01    9.43 ^ repeater198/A (sky130_fd_sc_hd__buf_8)
                  0.16    0.22    9.65 ^ repeater198/X (sky130_fd_sc_hd__buf_8)
    19    0.10                           net198 (net)
                  0.16    0.01    9.65 ^ repeater197/A (sky130_fd_sc_hd__buf_8)
                  0.14    0.21    9.87 ^ repeater197/X (sky130_fd_sc_hd__buf_8)
    17    0.08                           net197 (net)
                  0.14    0.00    9.87 ^ repeater151/A (sky130_fd_sc_hd__buf_8)
                  0.15    0.22   10.09 ^ repeater151/X (sky130_fd_sc_hd__buf_8)
    19    0.09                           net151 (net)
                  0.15    0.00   10.09 ^ repeater150/A (sky130_fd_sc_hd__buf_8)
                  0.15    0.22   10.31 ^ repeater150/X (sky130_fd_sc_hd__buf_8)
    19    0.09                           net150 (net)
                  0.15    0.00   10.31 ^ repeater149/A (sky130_fd_sc_hd__buf_8)
                  0.16    0.22   10.53 ^ repeater149/X (sky130_fd_sc_hd__buf_8)
    19    0.09                           net149 (net)
                  0.16    0.01   10.54 ^ repeater148/A (sky130_fd_sc_hd__buf_12)
                  0.10    0.18   10.72 ^ repeater148/X (sky130_fd_sc_hd__buf_12)
    16    0.08                           net148 (net)
                  0.10    0.00   10.72 ^ repeater147/A (sky130_fd_sc_hd__buf_8)
                  0.10    0.17   10.89 ^ repeater147/X (sky130_fd_sc_hd__buf_8)
    12    0.06                           net147 (net)
                  0.10    0.00   10.89 ^ repeater146/A (sky130_fd_sc_hd__buf_8)
                  0.15    0.20   11.09 ^ repeater146/X (sky130_fd_sc_hd__buf_8)
    19    0.09                           net146 (net)
                  0.15    0.00   11.10 ^ repeater145/A (sky130_fd_sc_hd__buf_8)
                  0.16    0.22   11.32 ^ repeater145/X (sky130_fd_sc_hd__buf_8)
    19    0.09                           net145 (net)
                  0.16    0.00   11.32 ^ repeater144/A (sky130_fd_sc_hd__buf_8)
                  0.15    0.22   11.54 ^ repeater144/X (sky130_fd_sc_hd__buf_8)
    19    0.09                           net144 (net)
                  0.15    0.00   11.54 ^ repeater143/A (sky130_fd_sc_hd__buf_8)
                  0.15    0.22   11.76 ^ repeater143/X (sky130_fd_sc_hd__buf_8)
    19    0.09                           net143 (net)
                  0.15    0.00   11.76 ^ repeater142/A (sky130_fd_sc_hd__buf_8)
                  0.15    0.22   11.98 ^ repeater142/X (sky130_fd_sc_hd__buf_8)
    19    0.09                           net142 (net)
                  0.15    0.00   11.99 ^ repeater141/A (sky130_fd_sc_hd__buf_8)
                  0.15    0.22   12.20 ^ repeater141/X (sky130_fd_sc_hd__buf_8)
    19    0.09                           net141 (net)
                  0.15    0.00   12.20 ^ repeater140/A (sky130_fd_sc_hd__buf_6)
                  0.13    0.20   12.41 ^ repeater140/X (sky130_fd_sc_hd__buf_6)
    12    0.06                           net140 (net)
                  0.13    0.00   12.41 ^ repeater139/A (sky130_fd_sc_hd__buf_8)
                  0.16    0.21   12.62 ^ repeater139/X (sky130_fd_sc_hd__buf_8)
    19    0.10                           net139 (net)
                  0.16    0.01   12.63 ^ repeater138/A (sky130_fd_sc_hd__buf_8)
                  0.15    0.22   12.85 ^ repeater138/X (sky130_fd_sc_hd__buf_8)
    19    0.09                           net138 (net)
                  0.15    0.00   12.85 ^ repeater137/A (sky130_fd_sc_hd__buf_8)
                  0.11    0.18   13.03 ^ repeater137/X (sky130_fd_sc_hd__buf_8)
    14    0.06                           net137 (net)
                  0.11    0.00   13.04 ^ _36812_/SET_B (sky130_fd_sc_hd__dfstp_1)
                                 13.04   data arrival time

                  0.15   40.00   40.00   clock clk (rise edge)
                          0.00   40.00   clock network delay (ideal)
                         -0.25   39.75   clock uncertainty
                          0.00   39.75   clock reconvergence pessimism
                                 39.75 ^ _36812_/CLK (sky130_fd_sc_hd__dfstp_1)
                          0.16   39.91   library recovery time
                                 39.91   data required time
-----------------------------------------------------------------------------
                                 39.91   data required time
                                -13.04   data arrival time
-----------------------------------------------------------------------------
                                 26.87   slack (MET)


Startpoint: reset_n (input port clocked by clk)
Endpoint: _36816_ (recovery check against rising-edge clock clk)
Path Group: **async_default**
Path Type: max

Fanout     Cap    Slew   Delay    Time   Description
-----------------------------------------------------------------------------
                  0.15    0.00    0.00   clock clk (rise edge)
                          0.00    0.00   clock network delay (ideal)
                          8.00    8.00 ^ input external delay
                  0.04    0.03    8.03 ^ reset_n (in)
     1    0.01                           reset_n (net)
                  0.04    0.00    8.03 ^ input16/A (sky130_fd_sc_hd__buf_8)
                  0.15    0.17    8.20 ^ input16/X (sky130_fd_sc_hd__buf_8)
    11    0.09                           net16 (net)
                  0.16    0.02    8.22 ^ repeater229/A (sky130_fd_sc_hd__buf_8)
                  0.16    0.22    8.44 ^ repeater229/X (sky130_fd_sc_hd__buf_8)
    19    0.09                           net229 (net)
                  0.16    0.00    8.45 ^ repeater228/A (sky130_fd_sc_hd__buf_12)
                  0.12    0.20    8.64 ^ repeater228/X (sky130_fd_sc_hd__buf_12)
    19    0.10                           net228 (net)
                  0.12    0.01    8.65 ^ repeater203/A (sky130_fd_sc_hd__buf_8)
                  0.11    0.18    8.83 ^ repeater203/X (sky130_fd_sc_hd__buf_8)
    13    0.06                           net203 (net)
                  0.11    0.00    8.83 ^ repeater202/A (sky130_fd_sc_hd__buf_8)
                  0.14    0.20    9.03 ^ repeater202/X (sky130_fd_sc_hd__buf_8)
    16    0.08                           net202 (net)
                  0.14    0.00    9.03 ^ repeater201/A (sky130_fd_sc_hd__buf_12)
                  0.10    0.18    9.21 ^ repeater201/X (sky130_fd_sc_hd__buf_12)
    16    0.08                           net201 (net)
                  0.10    0.00    9.21 ^ repeater200/A (sky130_fd_sc_hd__buf_8)
                  0.16    0.21    9.42 ^ repeater200/X (sky130_fd_sc_hd__buf_8)
    19    0.10                           net200 (net)
                  0.16    0.01    9.43 ^ repeater198/A (sky130_fd_sc_hd__buf_8)
                  0.16    0.22    9.65 ^ repeater198/X (sky130_fd_sc_hd__buf_8)
    19    0.10                           net198 (net)
                  0.16    0.01    9.65 ^ repeater197/A (sky130_fd_sc_hd__buf_8)
                  0.14    0.21    9.87 ^ repeater197/X (sky130_fd_sc_hd__buf_8)
    17    0.08                           net197 (net)
                  0.14    0.00    9.87 ^ repeater151/A (sky130_fd_sc_hd__buf_8)
                  0.15    0.22   10.09 ^ repeater151/X (sky130_fd_sc_hd__buf_8)
    19    0.09                           net151 (net)
                  0.15    0.00   10.09 ^ repeater150/A (sky130_fd_sc_hd__buf_8)
                  0.15    0.22   10.31 ^ repeater150/X (sky130_fd_sc_hd__buf_8)
    19    0.09                           net150 (net)
                  0.15    0.00   10.31 ^ repeater149/A (sky130_fd_sc_hd__buf_8)
                  0.16    0.22   10.53 ^ repeater149/X (sky130_fd_sc_hd__buf_8)
    19    0.09                           net149 (net)
                  0.16    0.01   10.54 ^ repeater148/A (sky130_fd_sc_hd__buf_12)
                  0.10    0.18   10.72 ^ repeater148/X (sky130_fd_sc_hd__buf_12)
    16    0.08                           net148 (net)
                  0.10    0.00   10.72 ^ repeater147/A (sky130_fd_sc_hd__buf_8)
                  0.10    0.17   10.89 ^ repeater147/X (sky130_fd_sc_hd__buf_8)
    12    0.06                           net147 (net)
                  0.10    0.00   10.89 ^ repeater146/A (sky130_fd_sc_hd__buf_8)
                  0.15    0.20   11.09 ^ repeater146/X (sky130_fd_sc_hd__buf_8)
    19    0.09                           net146 (net)
                  0.15    0.00   11.10 ^ repeater145/A (sky130_fd_sc_hd__buf_8)
                  0.16    0.22   11.32 ^ repeater145/X (sky130_fd_sc_hd__buf_8)
    19    0.09                           net145 (net)
                  0.16    0.00   11.32 ^ repeater144/A (sky130_fd_sc_hd__buf_8)
                  0.15    0.22   11.54 ^ repeater144/X (sky130_fd_sc_hd__buf_8)
    19    0.09                           net144 (net)
                  0.15    0.00   11.54 ^ repeater143/A (sky130_fd_sc_hd__buf_8)
                  0.15    0.22   11.76 ^ repeater143/X (sky130_fd_sc_hd__buf_8)
    19    0.09                           net143 (net)
                  0.15    0.00   11.76 ^ repeater142/A (sky130_fd_sc_hd__buf_8)
                  0.15    0.22   11.98 ^ repeater142/X (sky130_fd_sc_hd__buf_8)
    19    0.09                           net142 (net)
                  0.15    0.00   11.99 ^ repeater141/A (sky130_fd_sc_hd__buf_8)
                  0.15    0.22   12.20 ^ repeater141/X (sky130_fd_sc_hd__buf_8)
    19    0.09                           net141 (net)
                  0.15    0.00   12.20 ^ repeater140/A (sky130_fd_sc_hd__buf_6)
                  0.13    0.20   12.41 ^ repeater140/X (sky130_fd_sc_hd__buf_6)
    12    0.06                           net140 (net)
                  0.13    0.00   12.41 ^ repeater139/A (sky130_fd_sc_hd__buf_8)
                  0.16    0.21   12.62 ^ repeater139/X (sky130_fd_sc_hd__buf_8)
    19    0.10                           net139 (net)
                  0.16    0.01   12.63 ^ repeater138/A (sky130_fd_sc_hd__buf_8)
                  0.15    0.22   12.85 ^ repeater138/X (sky130_fd_sc_hd__buf_8)
    19    0.09                           net138 (net)
                  0.15    0.00   12.85 ^ repeater137/A (sky130_fd_sc_hd__buf_8)
                  0.11    0.18   13.03 ^ repeater137/X (sky130_fd_sc_hd__buf_8)
    14    0.06                           net137 (net)
                  0.11    0.00   13.04 ^ _36816_/SET_B (sky130_fd_sc_hd__dfstp_1)
                                 13.04   data arrival time

                  0.15   40.00   40.00   clock clk (rise edge)
                          0.00   40.00   clock network delay (ideal)
                         -0.25   39.75   clock uncertainty
                          0.00   39.75   clock reconvergence pessimism
                                 39.75 ^ _36816_/CLK (sky130_fd_sc_hd__dfstp_1)
                          0.16   39.91   library recovery time
                                 39.91   data required time
-----------------------------------------------------------------------------
                                 39.91   data required time
                                -13.04   data arrival time
-----------------------------------------------------------------------------
                                 26.87   slack (MET)


Startpoint: reset_n (input port clocked by clk)
Endpoint: _36815_ (recovery check against rising-edge clock clk)
Path Group: **async_default**
Path Type: max

Fanout     Cap    Slew   Delay    Time   Description
-----------------------------------------------------------------------------
                  0.15    0.00    0.00   clock clk (rise edge)
                          0.00    0.00   clock network delay (ideal)
                          8.00    8.00 ^ input external delay
                  0.04    0.03    8.03 ^ reset_n (in)
     1    0.01                           reset_n (net)
                  0.04    0.00    8.03 ^ input16/A (sky130_fd_sc_hd__buf_8)
                  0.15    0.17    8.20 ^ input16/X (sky130_fd_sc_hd__buf_8)
    11    0.09                           net16 (net)
                  0.16    0.02    8.22 ^ repeater229/A (sky130_fd_sc_hd__buf_8)
                  0.16    0.22    8.44 ^ repeater229/X (sky130_fd_sc_hd__buf_8)
    19    0.09                           net229 (net)
                  0.16    0.00    8.45 ^ repeater228/A (sky130_fd_sc_hd__buf_12)
                  0.12    0.20    8.64 ^ repeater228/X (sky130_fd_sc_hd__buf_12)
    19    0.10                           net228 (net)
                  0.12    0.01    8.65 ^ repeater203/A (sky130_fd_sc_hd__buf_8)
                  0.11    0.18    8.83 ^ repeater203/X (sky130_fd_sc_hd__buf_8)
    13    0.06                           net203 (net)
                  0.11    0.00    8.83 ^ repeater202/A (sky130_fd_sc_hd__buf_8)
                  0.14    0.20    9.03 ^ repeater202/X (sky130_fd_sc_hd__buf_8)
    16    0.08                           net202 (net)
                  0.14    0.00    9.03 ^ repeater201/A (sky130_fd_sc_hd__buf_12)
                  0.10    0.18    9.21 ^ repeater201/X (sky130_fd_sc_hd__buf_12)
    16    0.08                           net201 (net)
                  0.10    0.00    9.21 ^ repeater200/A (sky130_fd_sc_hd__buf_8)
                  0.16    0.21    9.42 ^ repeater200/X (sky130_fd_sc_hd__buf_8)
    19    0.10                           net200 (net)
                  0.16    0.01    9.43 ^ repeater198/A (sky130_fd_sc_hd__buf_8)
                  0.16    0.22    9.65 ^ repeater198/X (sky130_fd_sc_hd__buf_8)
    19    0.10                           net198 (net)
                  0.16    0.01    9.65 ^ repeater197/A (sky130_fd_sc_hd__buf_8)
                  0.14    0.21    9.87 ^ repeater197/X (sky130_fd_sc_hd__buf_8)
    17    0.08                           net197 (net)
                  0.14    0.00    9.87 ^ repeater151/A (sky130_fd_sc_hd__buf_8)
                  0.15    0.22   10.09 ^ repeater151/X (sky130_fd_sc_hd__buf_8)
    19    0.09                           net151 (net)
                  0.15    0.00   10.09 ^ repeater150/A (sky130_fd_sc_hd__buf_8)
                  0.15    0.22   10.31 ^ repeater150/X (sky130_fd_sc_hd__buf_8)
    19    0.09                           net150 (net)
                  0.15    0.00   10.31 ^ repeater149/A (sky130_fd_sc_hd__buf_8)
                  0.16    0.22   10.53 ^ repeater149/X (sky130_fd_sc_hd__buf_8)
    19    0.09                           net149 (net)
                  0.16    0.01   10.54 ^ repeater148/A (sky130_fd_sc_hd__buf_12)
                  0.10    0.18   10.72 ^ repeater148/X (sky130_fd_sc_hd__buf_12)
    16    0.08                           net148 (net)
                  0.10    0.00   10.72 ^ repeater147/A (sky130_fd_sc_hd__buf_8)
                  0.10    0.17   10.89 ^ repeater147/X (sky130_fd_sc_hd__buf_8)
    12    0.06                           net147 (net)
                  0.10    0.00   10.89 ^ repeater146/A (sky130_fd_sc_hd__buf_8)
                  0.15    0.20   11.09 ^ repeater146/X (sky130_fd_sc_hd__buf_8)
    19    0.09                           net146 (net)
                  0.15    0.00   11.10 ^ repeater145/A (sky130_fd_sc_hd__buf_8)
                  0.16    0.22   11.32 ^ repeater145/X (sky130_fd_sc_hd__buf_8)
    19    0.09                           net145 (net)
                  0.16    0.00   11.32 ^ repeater144/A (sky130_fd_sc_hd__buf_8)
                  0.15    0.22   11.54 ^ repeater144/X (sky130_fd_sc_hd__buf_8)
    19    0.09                           net144 (net)
                  0.15    0.00   11.54 ^ repeater143/A (sky130_fd_sc_hd__buf_8)
                  0.15    0.22   11.76 ^ repeater143/X (sky130_fd_sc_hd__buf_8)
    19    0.09                           net143 (net)
                  0.15    0.00   11.76 ^ repeater142/A (sky130_fd_sc_hd__buf_8)
                  0.15    0.22   11.98 ^ repeater142/X (sky130_fd_sc_hd__buf_8)
    19    0.09                           net142 (net)
                  0.15    0.00   11.99 ^ repeater141/A (sky130_fd_sc_hd__buf_8)
                  0.15    0.22   12.20 ^ repeater141/X (sky130_fd_sc_hd__buf_8)
    19    0.09                           net141 (net)
                  0.15    0.00   12.20 ^ repeater140/A (sky130_fd_sc_hd__buf_6)
                  0.13    0.20   12.41 ^ repeater140/X (sky130_fd_sc_hd__buf_6)
    12    0.06                           net140 (net)
                  0.13    0.00   12.41 ^ repeater139/A (sky130_fd_sc_hd__buf_8)
                  0.16    0.21   12.62 ^ repeater139/X (sky130_fd_sc_hd__buf_8)
    19    0.10                           net139 (net)
                  0.16    0.01   12.63 ^ repeater138/A (sky130_fd_sc_hd__buf_8)
                  0.15    0.22   12.85 ^ repeater138/X (sky130_fd_sc_hd__buf_8)
    19    0.09                           net138 (net)
                  0.15    0.00   12.85 ^ repeater137/A (sky130_fd_sc_hd__buf_8)
                  0.11    0.18   13.03 ^ repeater137/X (sky130_fd_sc_hd__buf_8)
    14    0.06                           net137 (net)
                  0.11    0.00   13.04 ^ _36815_/SET_B (sky130_fd_sc_hd__dfstp_1)
                                 13.04   data arrival time

                  0.15   40.00   40.00   clock clk (rise edge)
                          0.00   40.00   clock network delay (ideal)
                         -0.25   39.75   clock uncertainty
                          0.00   39.75   clock reconvergence pessimism
                                 39.75 ^ _36815_/CLK (sky130_fd_sc_hd__dfstp_1)
                          0.16   39.91   library recovery time
                                 39.91   data required time
-----------------------------------------------------------------------------
                                 39.91   data required time
                                -13.04   data arrival time
-----------------------------------------------------------------------------
                                 26.87   slack (MET)


Startpoint: address[0] (input port clocked by clk)
Endpoint: error (output port clocked by clk)
Path Group: clk
Path Type: max

Fanout     Cap    Slew   Delay    Time   Description
-----------------------------------------------------------------------------
                  0.15    0.00    0.00   clock clk (rise edge)
                          0.00    0.00   clock network delay (ideal)
                          8.00    8.00 v input external delay
                  0.02    0.02    8.02 v address[0] (in)
     1    0.01                           address[0] (net)
                  0.02    0.00    8.02 v input1/A (sky130_fd_sc_hd__buf_12)
                  0.07    0.16    8.17 v input1/X (sky130_fd_sc_hd__buf_12)
    10    0.18                           net1 (net)
                  0.28    0.14    8.32 v _17015_/D_N (sky130_fd_sc_hd__or4b_4)
                  0.17    0.43    8.74 ^ _17015_/X (sky130_fd_sc_hd__or4b_4)
     3    0.06                           _15987_ (net)
                  0.17    0.00    8.74 ^ _17053_/A (sky130_fd_sc_hd__nor2_8)
                  0.08    0.11    8.85 v _17053_/Y (sky130_fd_sc_hd__nor2_8)
    13    0.06                           _16025_ (net)
                  0.08    0.00    8.85 v _17102_/B (sky130_fd_sc_hd__or2_1)
                  0.07    0.26    9.11 v _17102_/X (sky130_fd_sc_hd__or2_1)
     1    0.01                           _16072_ (net)
                  0.07    0.00    9.11 v _17103_/A (sky130_fd_sc_hd__clkbuf_16)
                  0.08    0.21    9.32 v _17103_/X (sky130_fd_sc_hd__clkbuf_16)
    17    0.10                           _16073_ (net)
                  0.08    0.00    9.32 v _17147_/B (sky130_fd_sc_hd__or2_1)
                  0.07    0.26    9.58 v _17147_/X (sky130_fd_sc_hd__or2_1)
     1    0.01                           _16114_ (net)
                  0.07    0.00    9.58 v _17148_/A (sky130_fd_sc_hd__buf_8)
                  0.08    0.19    9.77 v _17148_/X (sky130_fd_sc_hd__buf_8)
    18    0.10                           _16115_ (net)
                  0.08    0.01    9.77 v _17479_/A2 (sky130_fd_sc_hd__o31a_1)
                  0.04    0.29   10.06 v _17479_/X (sky130_fd_sc_hd__o31a_1)
     1    0.00                           _03942_ (net)
                  0.04    0.00   10.06 v _17480_/C (sky130_fd_sc_hd__or4b_1)
                  0.09    0.50   10.55 v _17480_/X (sky130_fd_sc_hd__or4b_1)
     1    0.00                           _03943_ (net)
                  0.09    0.00   10.55 v _17481_/B1 (sky130_fd_sc_hd__o31a_1)
                  0.08    0.16   10.71 v _17481_/X (sky130_fd_sc_hd__o31a_1)
     1    0.01                           _03944_ (net)
                  0.08    0.00   10.71 v _17482_/A2 (sky130_fd_sc_hd__a21oi_4)
                  0.90    0.73   11.44 ^ _17482_/Y (sky130_fd_sc_hd__a21oi_4)
     1    0.13                           net58 (net)
                  0.92    0.10   11.54 ^ output58/A (sky130_fd_sc_hd__buf_2)
                  0.18    0.37   11.91 ^ output58/X (sky130_fd_sc_hd__buf_2)
     1    0.03                           error (net)
                  0.18    0.00   11.91 ^ error (out)
                                 11.91   data arrival time

                  0.15   40.00   40.00   clock clk (rise edge)
                          0.00   40.00   clock network delay (ideal)
                         -0.25   39.75   clock uncertainty
                          0.00   39.75   clock reconvergence pessimism
                         -8.00   31.75   output external delay
                                 31.75   data required time
-----------------------------------------------------------------------------
                                 31.75   data required time
                                -11.91   data arrival time
-----------------------------------------------------------------------------
                                 19.84   slack (MET)


Startpoint: address[7] (input port clocked by clk)
Endpoint: read_data[29] (output port clocked by clk)
Path Group: clk
Path Type: max

Fanout     Cap    Slew   Delay    Time   Description
-----------------------------------------------------------------------------
                  0.15    0.00    0.00   clock clk (rise edge)
                          0.00    0.00   clock network delay (ideal)
                          8.00    8.00 v input external delay
                  0.02    0.02    8.02 v address[7] (in)
     1    0.01                           address[7] (net)
                  0.02    0.00    8.02 v input10/A (sky130_fd_sc_hd__buf_12)
                  0.06    0.15    8.17 v input10/X (sky130_fd_sc_hd__buf_12)
     5    0.14                           net10 (net)
                  0.17    0.08    8.25 v _17001_/B (sky130_fd_sc_hd__or4b_1)
                  0.09    0.58    8.83 v _17001_/X (sky130_fd_sc_hd__or4b_1)
     1    0.00                           _15973_ (net)
                  0.09    0.00    8.83 v _17002_/A (sky130_fd_sc_hd__clkbuf_4)
                  0.09    0.23    9.05 v _17002_/X (sky130_fd_sc_hd__clkbuf_4)
     4    0.04                           _15974_ (net)
                  0.09    0.00    9.05 v _17003_/A (sky130_fd_sc_hd__or3b_4)
                  0.09    0.47    9.52 v _17003_/X (sky130_fd_sc_hd__or3b_4)
     3    0.02                           _15975_ (net)
                  0.09    0.00    9.52 v _17012_/B (sky130_fd_sc_hd__nor3b_4)
                  0.69    0.63   10.16 ^ _17012_/Y (sky130_fd_sc_hd__nor3b_4)
    14    0.06                           _15984_ (net)
                  0.69    0.01   10.16 ^ _17013_/A (sky130_fd_sc_hd__buf_8)
                  0.15    0.28   10.44 ^ _17013_/X (sky130_fd_sc_hd__buf_8)
    20    0.09                           _15985_ (net)
                  0.15    0.01   10.45 ^ _17444_/B1 (sky130_fd_sc_hd__a221o_1)
                  0.08    0.20   10.65 ^ _17444_/X (sky130_fd_sc_hd__a221o_1)
     1    0.01                           _03910_ (net)
                  0.08    0.00   10.65 ^ _17445_/C1 (sky130_fd_sc_hd__a221o_1)
                  0.15    0.20   10.84 ^ _17445_/X (sky130_fd_sc_hd__a221o_1)
     1    0.01                           _03911_ (net)
                  0.15    0.00   10.85 ^ _17447_/B1 (sky130_fd_sc_hd__a221o_1)
                  0.07    0.19   11.03 ^ _17447_/X (sky130_fd_sc_hd__a221o_1)
     1    0.01                           _03913_ (net)
                  0.07    0.00   11.03 ^ _17448_/A2 (sky130_fd_sc_hd__o21a_4)
                  0.29    0.30   11.34 ^ _17448_/X (sky130_fd_sc_hd__o21a_4)
     1    0.09                           net80 (net)
                  0.30    0.05   11.38 ^ output80/A (sky130_fd_sc_hd__buf_2)
                  0.17    0.29   11.67 ^ output80/X (sky130_fd_sc_hd__buf_2)
     1    0.03                           read_data[29] (net)
                  0.17    0.00   11.67 ^ read_data[29] (out)
                                 11.67   data arrival time

                  0.15   40.00   40.00   clock clk (rise edge)
                          0.00   40.00   clock network delay (ideal)
                         -0.25   39.75   clock uncertainty
                          0.00   39.75   clock reconvergence pessimism
                         -8.00   31.75   output external delay
                                 31.75   data required time
-----------------------------------------------------------------------------
                                 31.75   data required time
                                -11.67   data arrival time
-----------------------------------------------------------------------------
                                 20.08   slack (MET)


Startpoint: address[7] (input port clocked by clk)
Endpoint: read_data[20] (output port clocked by clk)
Path Group: clk
Path Type: max

Fanout     Cap    Slew   Delay    Time   Description
-----------------------------------------------------------------------------
                  0.15    0.00    0.00   clock clk (rise edge)
                          0.00    0.00   clock network delay (ideal)
                          8.00    8.00 v input external delay
                  0.02    0.02    8.02 v address[7] (in)
     1    0.01                           address[7] (net)
                  0.02    0.00    8.02 v input10/A (sky130_fd_sc_hd__buf_12)
                  0.06    0.15    8.17 v input10/X (sky130_fd_sc_hd__buf_12)
     5    0.14                           net10 (net)
                  0.17    0.08    8.25 v _17001_/B (sky130_fd_sc_hd__or4b_1)
                  0.09    0.58    8.83 v _17001_/X (sky130_fd_sc_hd__or4b_1)
     1    0.00                           _15973_ (net)
                  0.09    0.00    8.83 v _17002_/A (sky130_fd_sc_hd__clkbuf_4)
                  0.09    0.23    9.05 v _17002_/X (sky130_fd_sc_hd__clkbuf_4)
     4    0.04                           _15974_ (net)
                  0.09    0.00    9.05 v _17003_/A (sky130_fd_sc_hd__or3b_4)
                  0.09    0.47    9.52 v _17003_/X (sky130_fd_sc_hd__or3b_4)
     3    0.02                           _15975_ (net)
                  0.09    0.00    9.52 v _17012_/B (sky130_fd_sc_hd__nor3b_4)
                  0.69    0.63   10.16 ^ _17012_/Y (sky130_fd_sc_hd__nor3b_4)
    14    0.06                           _15984_ (net)
                  0.69    0.00   10.16 ^ _17332_/A2 (sky130_fd_sc_hd__a22o_1)
                  0.05    0.26   10.42 ^ _17332_/X (sky130_fd_sc_hd__a22o_1)
     1    0.00                           _16284_ (net)
                  0.05    0.00   10.42 ^ _17333_/C1 (sky130_fd_sc_hd__a221o_1)
                  0.04    0.10   10.52 ^ _17333_/X (sky130_fd_sc_hd__a221o_1)
     1    0.00                           _16285_ (net)
                  0.04    0.00   10.52 ^ _17334_/B (sky130_fd_sc_hd__or2_1)
                  0.13    0.16   10.68 ^ _17334_/X (sky130_fd_sc_hd__or2_1)
     1    0.01                           _16286_ (net)
                  0.13    0.00   10.68 ^ _17341_/A2 (sky130_fd_sc_hd__a221o_1)
                  0.05    0.17   10.85 ^ _17341_/X (sky130_fd_sc_hd__a221o_1)
     1    0.00                           _16293_ (net)
                  0.05    0.00   10.85 ^ _17342_/B (sky130_fd_sc_hd__and2_4)
                  0.20    0.27   11.12 ^ _17342_/X (sky130_fd_sc_hd__and2_4)
     1    0.07                           _16294_ (net)
                  0.20    0.02   11.14 ^ _17343_/A (sky130_fd_sc_hd__clkbuf_4)
                  0.14    0.27   11.41 ^ _17343_/X (sky130_fd_sc_hd__clkbuf_4)
     1    0.04                           net71 (net)
                  0.14    0.01   11.42 ^ output71/A (sky130_fd_sc_hd__buf_2)
                  0.17    0.24   11.67 ^ output71/X (sky130_fd_sc_hd__buf_2)
     1    0.03                           read_data[20] (net)
                  0.17    0.00   11.67 ^ read_data[20] (out)
                                 11.67   data arrival time

                  0.15   40.00   40.00   clock clk (rise edge)
                          0.00   40.00   clock network delay (ideal)
                         -0.25   39.75   clock uncertainty
                          0.00   39.75   clock reconvergence pessimism
                         -8.00   31.75   output external delay
                                 31.75   data required time
-----------------------------------------------------------------------------
                                 31.75   data required time
                                -11.67   data arrival time
-----------------------------------------------------------------------------
                                 20.08   slack (MET)


Startpoint: address[7] (input port clocked by clk)
Endpoint: read_data[18] (output port clocked by clk)
Path Group: clk
Path Type: max

Fanout     Cap    Slew   Delay    Time   Description
-----------------------------------------------------------------------------
                  0.15    0.00    0.00   clock clk (rise edge)
                          0.00    0.00   clock network delay (ideal)
                          8.00    8.00 v input external delay
                  0.02    0.02    8.02 v address[7] (in)
     1    0.01                           address[7] (net)
                  0.02    0.00    8.02 v input10/A (sky130_fd_sc_hd__buf_12)
                  0.06    0.15    8.17 v input10/X (sky130_fd_sc_hd__buf_12)
     5    0.14                           net10 (net)
                  0.17    0.08    8.25 v _17001_/B (sky130_fd_sc_hd__or4b_1)
                  0.09    0.58    8.83 v _17001_/X (sky130_fd_sc_hd__or4b_1)
     1    0.00                           _15973_ (net)
                  0.09    0.00    8.83 v _17002_/A (sky130_fd_sc_hd__clkbuf_4)
                  0.09    0.23    9.05 v _17002_/X (sky130_fd_sc_hd__clkbuf_4)
     4    0.04                           _15974_ (net)
                  0.09    0.00    9.05 v _17003_/A (sky130_fd_sc_hd__or3b_4)
                  0.09    0.47    9.52 v _17003_/X (sky130_fd_sc_hd__or3b_4)
     3    0.02                           _15975_ (net)
                  0.09    0.00    9.52 v _17012_/B (sky130_fd_sc_hd__nor3b_4)
                  0.69    0.63   10.16 ^ _17012_/Y (sky130_fd_sc_hd__nor3b_4)
    14    0.06                           _15984_ (net)
                  0.69    0.00   10.16 ^ _17307_/A2 (sky130_fd_sc_hd__a22o_1)
                  0.05    0.26   10.42 ^ _17307_/X (sky130_fd_sc_hd__a22o_1)
     1    0.00                           _16261_ (net)
                  0.05    0.00   10.42 ^ _17309_/B (sky130_fd_sc_hd__or3_1)
                  0.11    0.16   10.57 ^ _17309_/X (sky130_fd_sc_hd__or3_1)
     1    0.01                           _16263_ (net)
                  0.11    0.00   10.57 ^ _17317_/A2 (sky130_fd_sc_hd__a221o_1)
                  0.06    0.16   10.73 ^ _17317_/X (sky130_fd_sc_hd__a221o_1)
     1    0.00                           _16271_ (net)
                  0.06    0.00   10.73 ^ _17318_/B (sky130_fd_sc_hd__and2_4)
                  0.46    0.43   11.16 ^ _17318_/X (sky130_fd_sc_hd__and2_4)
     1    0.17                           _16272_ (net)
                  0.53    0.14   11.30 ^ _17319_/A (sky130_fd_sc_hd__clkbuf_1)
                  0.05    0.15   11.45 ^ _17319_/X (sky130_fd_sc_hd__clkbuf_1)
     1    0.00                           net68 (net)
                  0.05    0.00   11.45 ^ output68/A (sky130_fd_sc_hd__buf_2)
                  0.17    0.21   11.66 ^ output68/X (sky130_fd_sc_hd__buf_2)
     1    0.03                           read_data[18] (net)
                  0.17    0.00   11.66 ^ read_data[18] (out)
                                 11.66   data arrival time

                  0.15   40.00   40.00   clock clk (rise edge)
                          0.00   40.00   clock network delay (ideal)
                         -0.25   39.75   clock uncertainty
                          0.00   39.75   clock reconvergence pessimism
                         -8.00   31.75   output external delay
                                 31.75   data required time
-----------------------------------------------------------------------------
                                 31.75   data required time
                                -11.66   data arrival time
-----------------------------------------------------------------------------
                                 20.09   slack (MET)


Startpoint: address[7] (input port clocked by clk)
Endpoint: read_data[10] (output port clocked by clk)
Path Group: clk
Path Type: max

Fanout     Cap    Slew   Delay    Time   Description
-----------------------------------------------------------------------------
                  0.15    0.00    0.00   clock clk (rise edge)
                          0.00    0.00   clock network delay (ideal)
                          8.00    8.00 v input external delay
                  0.02    0.02    8.02 v address[7] (in)
     1    0.01                           address[7] (net)
                  0.02    0.00    8.02 v input10/A (sky130_fd_sc_hd__buf_12)
                  0.06    0.15    8.17 v input10/X (sky130_fd_sc_hd__buf_12)
     5    0.14                           net10 (net)
                  0.17    0.08    8.25 v _17001_/B (sky130_fd_sc_hd__or4b_1)
                  0.09    0.58    8.83 v _17001_/X (sky130_fd_sc_hd__or4b_1)
     1    0.00                           _15973_ (net)
                  0.09    0.00    8.83 v _17002_/A (sky130_fd_sc_hd__clkbuf_4)
                  0.09    0.23    9.05 v _17002_/X (sky130_fd_sc_hd__clkbuf_4)
     4    0.04                           _15974_ (net)
                  0.09    0.00    9.05 v _17003_/A (sky130_fd_sc_hd__or3b_4)
                  0.09    0.47    9.52 v _17003_/X (sky130_fd_sc_hd__or3b_4)
     3    0.02                           _15975_ (net)
                  0.09    0.00    9.52 v _17008_/C (sky130_fd_sc_hd__nor3_4)
                  0.73    0.61   10.13 ^ _17008_/Y (sky130_fd_sc_hd__nor3_4)
    15    0.07                           _15980_ (net)
                  0.73    0.00   10.13 ^ _17211_/B1 (sky130_fd_sc_hd__a221o_1)
                  0.06    0.27   10.40 ^ _17211_/X (sky130_fd_sc_hd__a221o_1)
     1    0.00                           _16173_ (net)
                  0.06    0.00   10.40 ^ _17212_/C1 (sky130_fd_sc_hd__a221o_1)
                  0.06    0.11   10.51 ^ _17212_/X (sky130_fd_sc_hd__a221o_1)
     1    0.00                           _16174_ (net)
                  0.06    0.00   10.51 ^ _17213_/B (sky130_fd_sc_hd__or2_1)
                  0.15    0.19   10.69 ^ _17213_/X (sky130_fd_sc_hd__or2_1)
     1    0.02                           _16175_ (net)
                  0.15    0.00   10.69 ^ _17221_/A2 (sky130_fd_sc_hd__a221o_1)
                  0.06    0.18   10.88 ^ _17221_/X (sky130_fd_sc_hd__a221o_1)
     1    0.00                           _16183_ (net)
                  0.06    0.00   10.88 ^ _17222_/B (sky130_fd_sc_hd__and2_4)
                  0.34    0.36   11.23 ^ _17222_/X (sky130_fd_sc_hd__and2_4)
     1    0.12                           _16184_ (net)
                  0.37    0.08   11.31 ^ _17223_/A (sky130_fd_sc_hd__clkbuf_1)
                  0.05    0.14   11.45 ^ _17223_/X (sky130_fd_sc_hd__clkbuf_1)
     1    0.00                           net60 (net)
                  0.05    0.00   11.45 ^ output60/A (sky130_fd_sc_hd__buf_2)
                  0.17    0.21   11.66 ^ output60/X (sky130_fd_sc_hd__buf_2)
     1    0.03                           read_data[10] (net)
                  0.17    0.00   11.66 ^ read_data[10] (out)
                                 11.66   data arrival time

                  0.15   40.00   40.00   clock clk (rise edge)
                          0.00   40.00   clock network delay (ideal)
                         -0.25   39.75   clock uncertainty
                          0.00   39.75   clock reconvergence pessimism
                         -8.00   31.75   output external delay
                                 31.75   data required time
-----------------------------------------------------------------------------
                                 31.75   data required time
                                -11.66   data arrival time
-----------------------------------------------------------------------------
                                 20.09   slack (MET)


