
===========================================================================
 report_power
============================================================================
Group                  Internal  Switching    Leakage      Total
                          Power      Power      Power      Power (Watts)
----------------------------------------------------------------
Sequential             4.70e-03   3.89e-04   3.76e-08   5.09e-03  71.0%
Combinational          8.99e-04   1.18e-03   6.61e-08   2.07e-03  29.0%
Macro                  0.00e+00   0.00e+00   0.00e+00   0.00e+00   0.0%
Pad                    0.00e+00   0.00e+00   0.00e+00   0.00e+00   0.0%
----------------------------------------------------------------
Total                  5.60e-03   1.56e-03   1.04e-07   7.16e-03 100.0%
                          78.2%      21.8%       0.0%
