
===========================================================================
report_checks -path_delay max (Setup)
============================================================================
Startpoint: _39353_ (rising edge-triggered flip-flop)
Endpoint: md_data_o[126] (output port clocked by clk)
Path Group: clk
Path Type: max

Fanout     Cap    Slew   Delay    Time   Description
-----------------------------------------------------------------------------
                  0.17    0.00    0.00 ^ _39353_/CLK (sky130_fd_sc_hd__dfrtp_4)
                  0.67    0.83    0.83 ^ _39353_/Q (sky130_fd_sc_hd__dfrtp_4)
     4    0.26                           net1393 (net)
                  0.90    0.32    1.14 ^ output1393/A (sky130_fd_sc_hd__buf_2)
                  0.18    0.37    1.51 ^ output1393/X (sky130_fd_sc_hd__buf_2)
     1    0.03                           md_data_o[126] (net)
                  0.18    0.00    1.51 ^ md_data_o[126] (out)
                                  1.51   data arrival time

                  0.00   40.00   40.00   clock clk (rise edge)
                          0.00   40.00   clock network delay (ideal)
                         -0.25   39.75   clock uncertainty
                          0.00   39.75   clock reconvergence pessimism
                         -8.00   31.75   output external delay
                                 31.75   data required time
-----------------------------------------------------------------------------
                                 31.75   data required time
                                 -1.51   data arrival time
-----------------------------------------------------------------------------
                                 30.24   slack (MET)


Startpoint: _39445_ (rising edge-triggered flip-flop)
Endpoint: md_data_o[210] (output port clocked by clk)
Path Group: clk
Path Type: max

Fanout     Cap    Slew   Delay    Time   Description
-----------------------------------------------------------------------------
                  0.18    0.00    0.00 ^ _39445_/CLK (sky130_fd_sc_hd__dfrtp_4)
                  0.59    0.83    0.83 ^ _39445_/Q (sky130_fd_sc_hd__dfrtp_4)
     4    0.22                           net1487 (net)
                  0.75    0.24    1.08 ^ output1487/A (sky130_fd_sc_hd__buf_2)
                  0.18    0.36    1.43 ^ output1487/X (sky130_fd_sc_hd__buf_2)
     1    0.03                           md_data_o[210] (net)
                  0.18    0.00    1.43 ^ md_data_o[210] (out)
                                  1.43   data arrival time

                  0.00   40.00   40.00   clock clk (rise edge)
                          0.00   40.00   clock network delay (ideal)
                         -0.25   39.75   clock uncertainty
                          0.00   39.75   clock reconvergence pessimism
                         -8.00   31.75   output external delay
                                 31.75   data required time
-----------------------------------------------------------------------------
                                 31.75   data required time
                                 -1.43   data arrival time
-----------------------------------------------------------------------------
                                 30.32   slack (MET)


Startpoint: _39435_ (rising edge-triggered flip-flop)
Endpoint: md_data_o[204] (output port clocked by clk)
Path Group: clk
Path Type: max

Fanout     Cap    Slew   Delay    Time   Description
-----------------------------------------------------------------------------
                  0.17    0.00    0.00 ^ _39435_/CLK (sky130_fd_sc_hd__dfrtp_4)
                  0.62    0.88    0.88 ^ _39435_/Q (sky130_fd_sc_hd__dfrtp_4)
     4    0.23                           net1480 (net)
                  0.70    0.18    1.05 ^ output1480/A (sky130_fd_sc_hd__buf_2)
                  0.18    0.35    1.40 ^ output1480/X (sky130_fd_sc_hd__buf_2)
     1    0.03                           md_data_o[204] (net)
                  0.18    0.00    1.40 ^ md_data_o[204] (out)
                                  1.40   data arrival time

                  0.00   40.00   40.00   clock clk (rise edge)
                          0.00   40.00   clock network delay (ideal)
                         -0.25   39.75   clock uncertainty
                          0.00   39.75   clock reconvergence pessimism
                         -8.00   31.75   output external delay
                                 31.75   data required time
-----------------------------------------------------------------------------
                                 31.75   data required time
                                 -1.40   data arrival time
-----------------------------------------------------------------------------
                                 30.35   slack (MET)


Startpoint: _39289_ (rising edge-triggered flip-flop)
Endpoint: md_data_o[62] (output port clocked by clk)
Path Group: clk
Path Type: max

Fanout     Cap    Slew   Delay    Time   Description
-----------------------------------------------------------------------------
                  0.17    0.00    0.00 ^ _39289_/CLK (sky130_fd_sc_hd__dfrtp_4)
                  0.57    0.83    0.83 ^ _39289_/Q (sky130_fd_sc_hd__dfrtp_4)
     3    0.22                           net1578 (net)
                  0.71    0.23    1.05 ^ output1578/A (sky130_fd_sc_hd__buf_2)
                  0.17    0.35    1.40 ^ output1578/X (sky130_fd_sc_hd__buf_2)
     1    0.03                           md_data_o[62] (net)
                  0.17    0.00    1.40 ^ md_data_o[62] (out)
                                  1.40   data arrival time

                  0.00   40.00   40.00   clock clk (rise edge)
                          0.00   40.00   clock network delay (ideal)
                         -0.25   39.75   clock uncertainty
                          0.00   39.75   clock reconvergence pessimism
                         -8.00   31.75   output external delay
                                 31.75   data required time
-----------------------------------------------------------------------------
                                 31.75   data required time
                                 -1.40   data arrival time
-----------------------------------------------------------------------------
                                 30.35   slack (MET)


Startpoint: _39432_ (rising edge-triggered flip-flop)
Endpoint: md_data_o[207] (output port clocked by clk)
Path Group: clk
Path Type: max

Fanout     Cap    Slew   Delay    Time   Description
-----------------------------------------------------------------------------
                  0.16    0.00    0.00 ^ _39432_/CLK (sky130_fd_sc_hd__dfrtp_4)
                  0.58    0.80    0.80 ^ _39432_/Q (sky130_fd_sc_hd__dfrtp_4)
     4    0.21                           net1483 (net)
                  0.71    0.22    1.01 ^ output1483/A (sky130_fd_sc_hd__buf_2)
                  0.17    0.35    1.36 ^ output1483/X (sky130_fd_sc_hd__buf_2)
     1    0.03                           md_data_o[207] (net)
                  0.17    0.00    1.36 ^ md_data_o[207] (out)
                                  1.36   data arrival time

                  0.00   40.00   40.00   clock clk (rise edge)
                          0.00   40.00   clock network delay (ideal)
                         -0.25   39.75   clock uncertainty
                          0.00   39.75   clock reconvergence pessimism
                         -8.00   31.75   output external delay
                                 31.75   data required time
-----------------------------------------------------------------------------
                                 31.75   data required time
                                 -1.36   data arrival time
-----------------------------------------------------------------------------
                                 30.39   slack (MET)


