
===========================================================================
 report_clock_skew
============================================================================
Clock clk
Latency      CRPR       Skew
_36280_/CLK ^
   3.00
_36269_/CLK ^
   2.41     -0.08       0.51

