
===========================================================================
report_checks -unconstrained
============================================================================
Startpoint: _39353_ (rising edge-triggered flip-flop)
Endpoint: md_data_o[126] (output port clocked by clk)
Path Group: clk
Path Type: max

Fanout     Cap    Slew   Delay    Time   Description
-----------------------------------------------------------------------------
                  0.17    0.00    0.00 ^ _39353_/CLK (sky130_fd_sc_hd__dfrtp_4)
                  0.67    0.83    0.83 ^ _39353_/Q (sky130_fd_sc_hd__dfrtp_4)
     4    0.26                           net1393 (net)
                  0.90    0.32    1.14 ^ output1393/A (sky130_fd_sc_hd__buf_2)
                  0.18    0.37    1.51 ^ output1393/X (sky130_fd_sc_hd__buf_2)
     1    0.03                           md_data_o[126] (net)
                  0.18    0.00    1.51 ^ md_data_o[126] (out)
                                  1.51   data arrival time

                  0.00   40.00   40.00   clock clk (rise edge)
                          0.00   40.00   clock network delay (ideal)
                         -0.25   39.75   clock uncertainty
                          0.00   39.75   clock reconvergence pessimism
                         -8.00   31.75   output external delay
                                 31.75   data required time
-----------------------------------------------------------------------------
                                 31.75   data required time
                                 -1.51   data arrival time
-----------------------------------------------------------------------------
                                 30.24   slack (MET)



===========================================================================
report_checks --slack_max -0.01
============================================================================
No paths found.
