Design Name: sha3_core
Run Directory: /home/yinguohua/rioschip/openlane/sha3/runs/22_11_25_22_09
Source not found.
----------------------------------------

LVS Summary:
Source: /home/yinguohua/rioschip/openlane/sha3/runs/22_11_25_22_09/logs/signoff/25-sha3_core.lvs.lef.log
LVS reports no net, device, pin, or property mismatches.
Total errors = 0
----------------------------------------

Antenna Summary:
Source: /home/yinguohua/rioschip/openlane/sha3/runs/22_11_25_22_09/reports/signoff/26-antenna.rpt
Number of pins violated: 678
Number of nets violated: 578