_17436_ 
_19198_ 
_17553_ 
_19604_ 
_17831_ 
_17866_ 
_18125_ 
_18194_ 
_18593_ 
_19022_ 
_19091_ 
_19158_ 
_19493_ 
_19561_ 
_19628_ 
_20032_ 
_20650_ 
_30318_ 
_30547_ 
_21506_ 
_23223_ 
_23358_ 
_27137_ 
_27967_ 
_24433_ 
_25352_ 
_30669_ 
_29712_ 
_29355_ 
_30381_ 
_30394_ 
_30404_ 
_30432_ 
_30534_ 
_30652_ 
_30660_ 
_30666_ 
_17223_ 
_17236_ 
_17319_ 
_17343_ 
_17389_ 
_29652_ 
_23955_ 
_24499_ 
_24573_ 
_30538_ 
_30545_ 
_29298_ 
_23841_ 
_22324_ 
_29804_ 
_21824_ 
_29823_ 
_29837_ 
_22390_ 
_29933_ 
_29987_ 
_20357_ 
_23633_ 
_30052_ 
_30058_ 
_20137_ 
_30077_ 
_30079_ 
_30087_ 
_30143_ 
_30200_ 
_20357_ 
_20260_ 
_21097_ 
_22194_ 
_28639_ 
_21954_ 
_21672_ 
_22882_ 
_22911_ 
_22931_ 
_22625_ 
_22967_ 
_30336_ 
_33549_ 
_33551_ 
_33553_ 
_33558_ 
_33563_ 
_33564_ 
_33565_ 
_33566_ 
_33539_ 
_33542_ 
_33543_ 
_33544_ 
_36957_ 
_23204_ 
_23201_ 
_23462_ 
_30721_ 
_33242_ 
_23287_ 
_23211_ 
_23215_ 
output51 
output59 
output63 
output64 
output65 
output66 
output67 
output70 
output74 
output76 
output77 
output81 
output84 
output85 